…
## Introduction

In this vignette we will run the Bayesian Transfer Function (BTFr). There
are options to use the package default which contains data for New
Jersey, USA. Alternatively, you can supply your own data. When supplying
data, use the package defaults as templates for formatting.

**Example data from New Jersey, USA**

``` r
## Example modern elevation
BTFr::NJ_modern_elevation
```

    ## # A tibble: 175 × 3
    ##    Site               SampleID     SWLI
    ##    <chr>              <chr>       <dbl>
    ##  1 Dodge Garage       DG/09/ST 4   196.
    ##  2 Dodge Garage       DG/09/ST 5   184.
    ##  3 Dodge Garage       DG/09/ST 6   181.
    ##  4 Dodge Garage       DG/09/ST 7   189.
    ##  5 Dodge Garage       DG/09/ST 8   189.
    ##  6 Dodge Garage       DG/09/ST 9   191.
    ##  7 Dodge Garage       DG/09/ST 10  185.
    ##  8 Dodge Garage       DG/09/ST 11  189.
    ##  9 Dodge Garage       DG/09/ST 12  163.
    ## 10 Brigantine Barrier BB/07/ST 1   215.
    ## # … with 165 more rows

``` r
## Example modern species data
BTFr::NJ_modern_species
```

    ## # A tibble: 175 × 23
    ##    `Jm+Bp` `Ti+Sl`    Tc    Hs    Mf    Pl    Pi    Am    Ai    Ea    Tq    Mp
    ##      <dbl>   <dbl> <dbl> <dbl> <dbl> <dbl> <dbl> <dbl> <dbl> <dbl> <dbl> <dbl>
    ##  1      32      82    10   128     0     4     0     2     0     0     0     2
    ##  2       9      77    21    74     9    11     0    36    16     0     0     4
    ##  3       7     150    25    19    13    12     0    19     0     0     0     1
    ##  4       7      98    32    67     5     9     0    19     2     0     0     0
    ##  5       8     129    39    56     3     6     0    13     1     0     0     2
    ##  6      10     146    25    41     2    17     0     0     0     0     0     0
    ##  7      31      80     7     5    89     0     0     0     0     0     0     0
    ##  8      11      74    26     1     2     2     0    16     0     0     0     0
    ##  9      11      27     9     3    17     1     0   130    16     0     0     0
    ## 10      50     119     5    37     1     0     0    16     0     0     0     0
    ## # … with 165 more rows, and 11 more variables: Calc <dbl>, Rs <dbl>, Ab <dbl>,
    ## #   As <dbl>, Ts <dbl>, Ad <dbl>, TO <dbl>, PH <dbl>, TG <dbl>, Tt <dbl>,
    ## #   Ph <dbl>

``` r
## Example core species data
BTFr::NJ_core_species
```

    ## # A tibble: 69 × 24
    ##    Depth `Jm+Bp` `Ti+Sl`    Tc    Hs    Mf    Pl    Pi    Am    Ai    Ea    Tq
    ##    <dbl>   <dbl>   <dbl> <dbl> <dbl> <dbl> <dbl> <dbl> <dbl> <dbl> <dbl> <dbl>
    ##  1     3      90      11    52     1    34     0     0     8     0     0     0
    ##  2     5      60      31    45     0    37     0     0     1     0     0     0
    ##  3     6      70       6    25     0     4     0     0     0     0     0     0
    ##  4     7      85      12    32     0    14     0     0     0     0     0     0
    ##  5    10      56      32    40     1     8     0     0     0     0     0     0
    ##  6    11      49      21    39     0     0     0     0     0     0     0     0
    ##  7    13      90       9    37     0     0     0     0     0     0     0     0
    ##  8    15      16      44    46     0     0     0     0     1     0     0     0
    ##  9    17      24      22    64     0     0     0     0     2     0     0     0
    ## 10    19      12      31    61     0     0     0     0     1     0     0     0
    ## # … with 59 more rows, and 12 more variables: Mp <dbl>, Calc <dbl>, Rs <dbl>,
    ## #   Ab <dbl>, As <dbl>, Ts <dbl>, Ad <dbl>, TO <dbl>, PH <dbl>, TG <dbl>,
    ## #   Tt <dbl>, Ph <dbl>

``` r
## Example core priors
BTFr::NJ_priors
```

    ## # A tibble: 69 × 3
    ##    Depth prior_lwr prior_upr
    ##    <dbl>     <dbl>     <dbl>
    ##  1     3         0       300
    ##  2     5         0       300
    ##  3     6         0       300
    ##  4     7         0       300
    ##  5    10         0       300
    ##  6    11         0       300
    ##  7    13         0       300
    ##  8    15         0       300
    ##  9    17         0       300
    ## 10    19         0       300
    ## # … with 59 more rows
…
**Get raw relative abundance data**

``` r
src$src_empirical_dat
```

    ## # A tibble: 1,400 × 3
    ##     SWLI species proportion
    ##    <dbl> <chr>        <dbl>
    ##  1  196. Mf         0      
    ##  2  196. Tc         0.0385 
    ##  3  196. Jm+Bp      0.123  
    ##  4  196. Hs         0.492  
    ##  5  196. Am         0.00769
    ##  6  196. Ab         0      
    ##  7  196. Mp         0.00769
    ##  8  196. Pl         0.0154 
    ##  9  184. Mf         0.0350 
    ## 10  184. Tc         0.0817 
    ## # … with 1,390 more rows

**Get model relative abundances**

``` r
src$src_model_dat
```

    ## # A tibble: 1,400 × 5
    ##     SWLI species proportion proportion_lwr proportion_upr
    ##    <dbl> <chr>        <dbl>          <dbl>          <dbl>
    ##  1  27.0 Mf        0.508      0.0214              0.966  
    ##  2  27.0 Tc        0.0445     0.000513            0.273  
    ##  3  27.0 Jm+Bp     0.0262     0.000103            0.175  
    ##  4  27.0 Hs        0.00333    0.00000453          0.0209 
    ##  5  27.0 Am        0.0404     0.000205            0.265  
    ##  6  27.0 Ab        0.312      0.00343             0.912  
    ##  7  27.0 Mp        0.0124     0.0000461           0.0763 
    ##  8  27.0 Pl        0.000200   0.0000000398        0.00138
    ##  9  30.1 Mf        0.510      0.0236              0.960  
    ## 10  30.1 Tc        0.0443     0.000517            0.261  
    ## # … with 1,390 more rows
…
The following will return a data frame of SWLI estimates with
uncertainties and a corresponding plot of the results.

``` r
swli_res <- swli_results(core_mod)
```

**Get the results**

``` r
swli_res$SWLI_dat
```

    ## # A tibble: 69 × 5
    ##    Depth  SWLI sigma lower upper
    ##    <dbl> <dbl> <dbl> <dbl> <dbl>
    ##  1     3  165.  39.4  86.0  244.
    ##  2     5  165.  39.8  85.2  244.
    ##  3     6  150.  51.1  48.1  253.
    ##  4     7  169.  54.8  59.6  279.
    ##  5    10  185.  50.6  84.0  286.
    ##  6    11  198.  44.2 110.   287.
    ##  7    13  202.  45.1 112.   292.
    ##  8    15  187.  38.6 110.   264.
    ##  9    17  187.  38.1 111.   263.
    ## 10    19  185.  37.1 111.   259.
    ## # … with 59 more rows
…
