…
``` r
cp_dat <- sim_cp(n_sim = 50,
                 alpha = 0,
                 beta = c(1.1,0.1),
                 cp = 1,
                 y_err = 0.1,
                 x_err = 0.2)
cp_dat
```

    ## # A tibble: 50 × 6
    ##        x x_err         y y_err   true_y true_x
    ##    <dbl> <dbl>     <dbl> <dbl>    <dbl>  <dbl>
    ##  1 1.04    0.2  0.0263     0.1  0.0400   1.40 
    ##  2 2.06    0.2  0.135      0.1  0.0953   1.95 
    ##  3 1.61    0.2 -0.0203     0.1  0.0386   1.39 
    ##  4 1.27    0.2  0.0182     0.1  0.0153   1.15 
    ##  5 1.85    0.2  0.176      0.1  0.0926   1.93 
    ##  6 1.81    0.2  0.115      0.1  0.0772   1.77 
    ##  7 1.22    0.2 -0.0197     0.1  0.00125  1.01 
    ##  8 0.715   0.2 -0.117      0.1 -0.229    0.792
    ##  9 1.02    0.2 -0.447      0.1 -0.393    0.643
    ## 10 1.80    0.2  0.000764   0.1  0.0875   1.87 
    ## # … with 40 more rows
…
If you would like to get a more detailed look at the posterior
distributions for the parameters you can pull the posterior samples from
the model object created above and we can use the `tidybayes` package to
create some plots.

First, get the `sample_draws` which contains the posterior samples for
the parameters and the model-based estimates for the expected value of
y.

``` r
mod_eiv_cp$sample_draws
```

    ## # A tibble: 3,000 × 59
    ##    .chain .iteration .draw   alpha beta[…¹ beta[…²    cp devia…³ mu_pr…⁴ mu_pr…⁵
    ##     <int>      <int> <int>   <dbl>   <dbl>   <dbl> <dbl>   <dbl>   <dbl>   <dbl>
    ##  1      1          1     1 -0.0492    1.48  0.118  0.685  -103.   -1.08   -1.02 
    ##  2      1          2     2 -0.0537    1.16  0.110  0.796   -90.2  -0.994  -0.945
    ##  3      1          3     3 -0.185     1.47  0.302  0.572   -80.3  -1.04   -0.980
    ##  4      1          4     4 -0.0344    1.21  0.114  0.819   -89.9  -1.04   -0.992
    ##  5      1          5     5 -0.0403    1.30  0.147  0.732   -91.6  -1.01   -0.952
    ##  6      1          6     6 -0.0345    1.51  0.100  0.738   -68.7  -1.17   -1.11 
    ##  7      1          7     7 -0.129     1.33  0.236  0.703   -75.8  -1.08   -1.02 
    ##  8      1          8     8  0.0328    1.30  0.0260 0.881   -96.8  -1.13   -1.07 
    ##  9      1          9     9 -0.107     1.54  0.184  0.678   -74.2  -1.17   -1.11 
    ## 10      1         10    10 -0.248     1.59  0.378  0.500   -60.4  -1.06   -0.996
    ## # … with 2,990 more rows, 49 more variables: `mu_pred[3]` <dbl>,
    ## #   `mu_pred[4]` <dbl>, `mu_pred[5]` <dbl>, `mu_pred[6]` <dbl>,
    ## #   `mu_pred[7]` <dbl>, `mu_pred[8]` <dbl>, `mu_pred[9]` <dbl>,
    ## #   `mu_pred[10]` <dbl>, `mu_pred[11]` <dbl>, `mu_pred[12]` <dbl>,
    ## #   `mu_pred[13]` <dbl>, `mu_pred[14]` <dbl>, `mu_pred[15]` <dbl>,
    ## #   `mu_pred[16]` <dbl>, `mu_pred[17]` <dbl>, `mu_pred[18]` <dbl>,
    ## #   `mu_pred[19]` <dbl>, `mu_pred[20]` <dbl>, `mu_pred[21]` <dbl>, …
…
