…
To access the data that created this plot, use:

``` r
mod_reg_res <- par_est(mod = mod_eiv_slr)
mod_reg_res$pred_summary
```

    ## # A tibble: 50 × 4
    ##        x pred_y lwr_95 upr_95
    ##    <dbl>  <dbl>  <dbl>  <dbl>
    ##  1 0.151  0.160 0.0349  0.276
    ##  2 0.182  0.192 0.0707  0.305
    ##  3 0.214  0.225 0.108   0.334
    ##  4 0.245  0.259 0.145   0.363
    ##  5 0.277  0.292 0.180   0.393
    ##  6 0.309  0.325 0.215   0.423
    ##  7 0.340  0.358 0.251   0.454
    ##  8 0.372  0.391 0.288   0.485
    ##  9 0.403  0.425 0.324   0.515
    ## 10 0.435  0.458 0.358   0.545
    ## # … with 40 more rows
…
## Example - Using real data

The package contains a dataset called `NJ_CC` which is subset of a sea
level reconstruction from New Jersey, USA (details of the full record
can be found in [this
paper](https://cp.copernicus.org/articles/12/525/2016/)). Note the
format of the dataset. This is the format you should use for any data
you want to apply these models to.

``` r
EIVmodels::NJ_CC
```

    ## # A tibble: 50 × 4
    ##        x     y y_err x_err
    ##    <dbl> <dbl> <dbl> <dbl>
    ##  1  1509 -1.13  0.08  21  
    ##  2  1521 -1.12  0.07  20  
    ##  3  1532 -1.1   0.07  19  
    ##  4  1594 -1.05  0.06  15  
    ##  5  1604 -1     0.09  15  
    ##  6  1612 -0.97  0.09  13.5
    ##  7  1645 -0.91  0.13   7.5
    ##  8  1661 -0.91  0.09   6  
    ##  9  1687 -0.88  0.11  11  
    ## 10  1700 -0.85  0.11  11.5
    ## # … with 40 more rows
…
Let’s look at the output that creates these results plots

``` r
mod_gp_res <- par_est(mod = mod_eiv_gp)
mod_gp_res$pred_summary
```

    ## # A tibble: 50 × 7
    ##        x pred_y lwr_95 upr_95 rate_y rate_lwr_95 rate_upr_95
    ##    <dbl>  <dbl>  <dbl>  <dbl>  <dbl>       <dbl>       <dbl>
    ##  1 1509   -1.09  -1.24 -0.932  0.461     -0.969         1.57
    ##  2 1519.  -1.08  -1.23 -0.938  0.481     -0.915         1.58
    ##  3 1529.  -1.08  -1.21 -0.942  0.535     -0.794         1.60
    ##  4 1539.  -1.07  -1.20 -0.945  0.596     -0.685         1.60
    ##  5 1549.  -1.07  -1.19 -0.947  0.639     -0.578         1.63
    ##  6 1559.  -1.06  -1.17 -0.947  0.703     -0.459         1.64
    ##  7 1569.  -1.05  -1.16 -0.946  0.776     -0.333         1.68
    ##  8 1578.  -1.04  -1.15 -0.944  0.836     -0.227         1.71
    ##  9 1588.  -1.04  -1.13 -0.940  0.887     -0.132         1.75
    ## 10 1598.  -1.03  -1.12 -0.935  0.946     -0.0164        1.79
    ## # … with 40 more rows
…
Let’s look at the output that creates these results plots

``` r
mod_igp_res <- par_est(mod = mod_eiv_igp)
mod_igp_res$pred_summary
```

    ## # A tibble: 50 × 7
    ##        x pred_y lwr_95 upr_95 rate_y rate_lwr_95 rate_upr_95
    ##    <dbl>  <dbl>  <dbl>  <dbl>  <dbl>       <dbl>       <dbl>
    ##  1 1509   -1.12  -1.22 -1.03   0.915     -0.113         2.10
    ##  2 1519.  -1.11  -1.20 -1.03   0.942     -0.0477        2.03
    ##  3 1529.  -1.10  -1.18 -1.03   0.975      0.0320        2.03
    ##  4 1539.  -1.09  -1.17 -1.02   1.00       0.0925        1.99
    ##  5 1549.  -1.08  -1.15 -1.02   1.04       0.187         1.97
    ##  6 1559.  -1.07  -1.14 -1.01   1.08       0.257         1.96
    ##  7 1569.  -1.06  -1.12 -1.00   1.11       0.322         1.93
    ##  8 1578.  -1.05  -1.11 -0.995  1.14       0.399         1.92
    ##  9 1588.  -1.04  -1.09 -0.986  1.18       0.482         1.91
    ## 10 1598.  -1.03  -1.08 -0.974  1.21       0.552         1.91
    ## # … with 40 more rows
…
